{
  "reviews": {
    "data": {
      "overall_rating": 3.8,
      "total_reviews": 6,
      "reviews": [
        {
          "user_name": "Duong Ba Xinh",
          "rating": 4,
          "rating_text": "Rất hài lòng",
          "comment": "Gia đình mình hiện tại đã sử dụng sản phẩm này được 2 tuần và thấy hiệu quả rõ rệt. Gia đình mình hiện tại đã sử dụng sản phẩm này được 2 tuần và thấy hiệu quả rõ rệtGia đình mình hiện tại đã sử dụng sản phẩm này được 2 tuần và thấy hiệu quả rõ rệt.",
          "time_ago": "2 Ngày trước",
          "images": []
        },
        {
          "user_name": "Nguyen Van A",
          "rating": 4,
          "rating_text": "Rất hài lòng",
          "comment": "Gia đình mình hiện tại đã sử dụng sản phẩm này được 2 tuần và thấy hiệu quả rõ rệt. Gia đình mình hiện tại đã sử dụng sản phẩm này được 2 tuần và thấy hiệu quả rõ rệtGia đình mình hiện tại đã sử dụng sản phẩm này được 2 tuần và thấy hiệu quả rõ rệt.",
          "time_ago": "2 Ngày trước",
          "images": []
        }
      ],
      "joyBoy_care_response": {
        "message": "Cảm ơn bạn đã dành thời gian đánh giá sản phẩm. JoyBoy rất vui khi biết bạn hài lòng với sản phẩm và dịch vụ của JoyBoy. Nếu có bất kỳ câu hỏi nào khác, vui lòng liên hệ với JoyBoy qua các kênh hỗ trợ của JoyBoy nhé. Chúc bạn một ngày vui vẻ!",
        "time_ago": "2 ngày trước"
      }
    }
  },
  "products": {
    "data": {
      "products": [
        {
          "_id": "67ff67353f19d24dd1e85b54",
          "product_name": "Kem Dưỡng Chống Lão Hóa",
          "product_price": 620000,
          "product_thumbnail": "https://res.cloudinary.com/dwu92ycra/image/upload/v1707578535/a33e9bcd4c1c613d1b3404eb594b8b90.jpg_ssguf4.webp",
          "product_images": [],
          "product_type": "Kem dưỡng",
          "product_brand": "BRAND_ID_EXAMPLE",
          "product_category": "CATEGORY_ID_EXAMPLE",
          "product_made": "Italy",
          "product_discount": true,
          "product_discount_start": 1680692122000,
          "product_discount_end": 1680695722000,
          "product_sold": 85,
          "product_international": true,
          "product_rate": 5,
          "product_ingredient": "Water, Butylene Glycol, Glycerin, Hydroxyethyl Urea, Pentylene Glycol, Triethylhexanoin, Squalane, PPG-10 Methyl Glucose Ether, Ammonium Acryloyldimethyltaurate/VP Copolymer, Behenyl Alcohol, Dimethicone, Triethyl Citrate, PPG-17-Buteth-17, Cyclopentasiloxane, Phenoxyethanol, Disodium Succinate, Methylparaben, Sodium Hyaluronate, Dimethicone Crosspolymer, Succinic Acid, Agar, Disodium EDTA, Sodium Acetylated Hyaluronate, Hydrolyzed Hyaluronic Acid, Hydrolyzed Collagen, Aphanothece Sacrum Exopolysaccharides, Alpha-Glucan, Ammonium Acrylates Copolymer, Hydroxypropyltrimonium Hyaluronate, Glucosyl Ceramide"
        },
        {
          "_id": "67ff67353f19d24dd1e85b55",
          "product_name": "Tinh Chất Collagen Chống Nhăn",
          "product_price": 450000,
          "product_thumbnail": "https://res.cloudinary.com/dwu92ycra/image/upload/v1707578546/20db49212c015aad2fced1325a8b60ca.jpg_tosrfw.webp",
          "product_images": [],
          "product_type": "Tinh chất",
          "product_brand": "BRAND_ID_EXAMPLE",
          "product_category": "CATEGORY_ID_EXAMPLE",
          "product_made": "Korea",
          "product_discount": false,
          "product_discount_start": 1680692122000,
          "product_discount_end": 1680695722000,
          "product_sold": 120,
          "product_international": true,
          "product_rate": 5,
          "product_ingredient": "Water, Butylene Glycol, Glycerin, Hydroxyethyl Urea, Pentylene Glycol, Triethylhexanoin, Squalane, PPG-10 Methyl Glucose Ether, Ammonium Acryloyldimethyltaurate/VP Copolymer, Behenyl Alcohol, Dimethicone, Triethyl Citrate, PPG-17-Buteth-17, Cyclopentasiloxane, Phenoxyethanol, Disodium Succinate, Methylparaben, Sodium Hyaluronate, Dimethicone Crosspolymer, Succinic Acid, Agar, Disodium EDTA, Sodium Acetylated Hyaluronate, Hydrolyzed Hyaluronic Acid, Hydrolyzed Collagen, Aphanothece Sacrum Exopolysaccharides, Alpha-Glucan, Ammonium Acrylates Copolymer, Hydroxypropyltrimonium Hyaluronate, Glucosyl Ceramide"
        },
        {
          "_id": "67ff67433f19d24dd1e85b5d",
          "product_name": "Tẩy Trang Micellar Water",
          "product_price": 190000,
          "product_thumbnail": "https://res.cloudinary.com/dwu92ycra/image/upload/v1707578530/71451db414c4f652532cb727db142455.jpg_hdi5mr.webp",
          "product_images": [],
          "product_type": "Tẩy trang",
          "product_brand": "BRAND_ID_EXAMPLE",
          "product_category": "CATEGORY_ID_EXAMPLE",
          "product_made": "Thailand",
          "product_discount": false,
          "product_discount_start": 1680692122000,
          "product_discount_end": 1680695722000,
          "product_sold": 70,
          "product_international": true,
          "product_rate": 5,
          "product_ingredient": "Water, Butylene Glycol, Glycerin, Hydroxyethyl Urea, Pentylene Glycol, Triethylhexanoin, Squalane, PPG-10 Methyl Glucose Ether, Ammonium Acryloyldimethyltaurate/VP Copolymer, Behenyl Alcohol, Dimethicone, Triethyl Citrate, PPG-17-Buteth-17, Cyclopentasiloxane, Phenoxyethanol, Disodium Succinate, Methylparaben, Sodium Hyaluronate, Dimethicone Crosspolymer, Succinic Acid, Agar, Disodium EDTA, Sodium Acetylated Hyaluronate, Hydrolyzed Hyaluronic Acid, Hydrolyzed Collagen, Aphanothece Sacrum Exopolysaccharides, Alpha-Glucan, Ammonium Acrylates Copolymer, Hydroxypropyltrimonium Hyaluronate, Glucosyl Ceramide"
        },
        {
          "_id": "67ff67353f19d24dd1e85b4f",
          "product_name": "Serum Vitamin C Làm Sáng Da",
          "product_price": 499000,
          "product_thumbnail": "https://res.cloudinary.com/dwu92ycra/image/upload/v1707556372/f372f8b978ab44f821044c64fbd2a5f1.png_w5zodz.webp",
          "product_images": [
            "https://res.cloudinary.com/dwu92ycra/image/upload/v1707578535/a33e9bcd4c1c613d1b3404eb594b8b90.jpg_ssguf4.webp"
          ],
          "product_type": "Serum",
          "product_brand": "BRAND_1",
          "product_category": "NOSE",
          "product_made": "Korea",
          "product_discount": true,
          "product_discount_start": 1680692122000,
          "product_discount_end": 1680695722000,
          "product_sold": 80,
          "product_international": true,
          "product_rate": 5,
          "product_ingredient": "Water, Butylene Glycol, Glycerin, Hydroxyethyl Urea, Pentylene Glycol, Triethylhexanoin, Squalane, PPG-10 Methyl Glucose Ether, Ammonium Acryloyldimethyltaurate/VP Copolymer, Behenyl Alcohol, Dimethicone, Triethyl Citrate, PPG-17-Buteth-17, Cyclopentasiloxane, Phenoxyethanol, Disodium Succinate, Methylparaben, Sodium Hyaluronate, Dimethicone Crosspolymer, Succinic Acid, Agar, Disodium EDTA, Sodium Acetylated Hyaluronate, Hydrolyzed Hyaluronic Acid, Hydrolyzed Collagen, Aphanothece Sacrum Exopolysaccharides, Alpha-Glucan, Ammonium Acrylates Copolymer, Hydroxypropyltrimonium Hyaluronate, Glucosyl Ceramide"
        },
        {
          "_id": "67ff67353f19d24dd1e85b4d",
          "product_name": "Sữa Rửa Mặt Trà Xanh Dưỡng Ẩm",
          "product_price": 280000,
          "product_thumbnail": "https://res.cloudinary.com/dwu92ycra/image/upload/v1707578535/a33e9bcd4c1c613d1b3404eb594b8b90.jpg_ssguf4.webp",
          "product_images": [
            "https://res.cloudinary.com/dwu92ycra/image/upload/v1707556454/2507a15266157eb18029c1abbbe71bd5.jpg_r75wtj.webp"
          ],
          "product_type": "Sữa rửa mặt",
          "product_brand": "BRAND_1",
          "product_category": "FACE",
          "product_made": "Vietnam",
          "product_discount": true,
          "product_discount_start": 1680692122000,
          "product_discount_end": 1680695722000,
          "product_sold": 30,
          "product_international": false,
          "product_rate": 5,
          "product_ingredient": "Water, Butylene Glycol, Glycerin, Hydroxyethyl Urea, Pentylene Glycol, Triethylhexanoin, Squalane, PPG-10 Methyl Glucose Ether, Ammonium Acryloyldimethyltaurate/VP Copolymer, Behenyl Alcohol, Dimethicone, Triethyl Citrate, PPG-17-Buteth-17, Cyclopentasiloxane, Phenoxyethanol, Disodium Succinate, Methylparaben, Sodium Hyaluronate, Dimethicone Crosspolymer, Succinic Acid, Agar, Disodium EDTA, Sodium Acetylated Hyaluronate, Hydrolyzed Hyaluronic Acid, Hydrolyzed Collagen, Aphanothece Sacrum Exopolysaccharides, Alpha-Glucan, Ammonium Acrylates Copolymer, Hydroxypropyltrimonium Hyaluronate, Glucosyl Ceramide"
        },
        {
          "_id": "67ff67433f19d24dd1e85b5a",
          "product_name": "Serum Vitamin C Làm Sáng Da",
          "product_price": 499000,
          "product_thumbnail": "https://res.cloudinary.com/dwu92ycra/image/upload/v1707556372/f372f8b978ab44f821044c64fbd2a5f1.png_w5zodz.webp",
          "product_images": [
            "https://res.cloudinary.com/dwu92ycra/image/upload/v1707578535/a33e9bcd4c1c613d1b3404eb594b8b90.jpg_ssguf4.webp"
          ],
          "product_type": "Serum",
          "product_brand": "BRAND_ID_EXAMPLE",
          "product_category": "CATEGORY_ID_EXAMPLE",
          "product_made": "Korea",
          "product_discount": true,
          "product_discount_start": 1680692122000,
          "product_discount_end": 1680695722000,
          "product_sold": 80,
          "product_international": true,
          "product_rate": 5,
          "product_ingredient": "Water, Butylene Glycol, Glycerin, Hydroxyethyl Urea, Pentylene Glycol, Triethylhexanoin, Squalane, PPG-10 Methyl Glucose Ether, Ammonium Acryloyldimethyltaurate/VP Copolymer, Behenyl Alcohol, Dimethicone, Triethyl Citrate, PPG-17-Buteth-17, Cyclopentasiloxane, Phenoxyethanol, Disodium Succinate, Methylparaben, Sodium Hyaluronate, Dimethicone Crosspolymer, Succinic Acid, Agar, Disodium EDTA, Sodium Acetylated Hyaluronate, Hydrolyzed Hyaluronic Acid, Hydrolyzed Collagen, Aphanothece Sacrum Exopolysaccharides, Alpha-Glucan, Ammonium Acrylates Copolymer, Hydroxypropyltrimonium Hyaluronate, Glucosyl Ceramide"
        },
        {
          "_id": "67ff67433f19d24dd1e85b60",
          "product_name": "Tinh Chất Collagen Chống Nhăn",
          "product_price": 450000,
          "product_thumbnail": "https://res.cloudinary.com/dwu92ycra/image/upload/v1707578546/20db49212c015aad2fced1325a8b60ca.jpg_tosrfw.webp",
          "product_images": [],
          "product_type": "Tinh chất",
          "product_brand": "BRAND_ID_EXAMPLE",
          "product_category": "CATEGORY_ID_EXAMPLE",
          "product_made": "Korea",
          "product_discount": false,
          "product_discount_start": 1680692122000,
          "product_discount_end": 1680695722000,
          "product_sold": 120,
          "product_international": true,
          "product_rate": 5,
          "product_ingredient": "Water, Butylene Glycol, Glycerin, Hydroxyethyl Urea, Pentylene Glycol, Triethylhexanoin, Squalane, PPG-10 Methyl Glucose Ether, Ammonium Acryloyldimethyltaurate/VP Copolymer, Behenyl Alcohol, Dimethicone, Triethyl Citrate, PPG-17-Buteth-17, Cyclopentasiloxane, Phenoxyethanol, Disodium Succinate, Methylparaben, Sodium Hyaluronate, Dimethicone Crosspolymer, Succinic Acid, Agar, Disodium EDTA, Sodium Acetylated Hyaluronate, Hydrolyzed Hyaluronic Acid, Hydrolyzed Collagen, Aphanothece Sacrum Exopolysaccharides, Alpha-Glucan, Ammonium Acrylates Copolymer, Hydroxypropyltrimonium Hyaluronate, Glucosyl Ceramide"
        },
        {
          "_id": "67ff67433f19d24dd1e85b5f",
          "product_name": "Kem Dưỡng Chống Lão Hóa",
          "product_price": 620000,
          "product_thumbnail": "https://res.cloudinary.com/dwu92ycra/image/upload/v1707578535/a33e9bcd4c1c613d1b3404eb594b8b90.jpg_ssguf4.webp",
          "product_images": [],
          "product_type": "Kem dưỡng",
          "product_brand": "BRAND_ID_EXAMPLE",
          "product_category": "CATEGORY_ID_EXAMPLE",
          "product_made": "Italy",
          "product_discount": true,
          "product_discount_start": 1680692122000,
          "product_discount_end": 1680695722000,
          "product_sold": 85,
          "product_international": true,
          "product_rate": 5,
          "product_ingredient": "Water, Butylene Glycol, Glycerin, Hydroxyethyl Urea, Pentylene Glycol, Triethylhexanoin, Squalane, PPG-10 Methyl Glucose Ether, Ammonium Acryloyldimethyltaurate/VP Copolymer, Behenyl Alcohol, Dimethicone, Triethyl Citrate, PPG-17-Buteth-17, Cyclopentasiloxane, Phenoxyethanol, Disodium Succinate, Methylparaben, Sodium Hyaluronate, Dimethicone Crosspolymer, Succinic Acid, Agar, Disodium EDTA, Sodium Acetylated Hyaluronate, Hydrolyzed Hyaluronic Acid, Hydrolyzed Collagen, Aphanothece Sacrum Exopolysaccharides, Alpha-Glucan, Ammonium Acrylates Copolymer, Hydroxypropyltrimonium Hyaluronate, Glucosyl Ceramide"
        },
        {
          "_id": "67ff67433f19d24dd1e85b57",
          "product_name": "Kem Chống Nắng Mỏng Nhẹ Neutrogena SPF 50 88ml",
          "product_price": 416000,
          "product_thumbnail": "https://res.cloudinary.com/dwu92ycra/image/upload/v1707556454/2507a15266157eb18029c1abbbe71bd5.jpg_r75wtj.webp",
          "product_images": [
            "https://res.cloudinary.com/dwu92ycra/image/upload/v1707578530/71451db414c4f652532cb727db142455.jpg_hdi5mr.webp",
            "https://res.cloudinary.com/dwu92ycra/image/upload/v1707578535/a33e9bcd4c1c613d1b3404eb594b8b90.jpg_ssguf4.webp",
            "https://res.cloudinary.com/dwu92ycra/image/upload/v1707578546/20db49212c015aad2fced1325a8b60ca.jpg_tosrfw.webp",
            "https://res.cloudinary.com/dwu92ycra/image/upload/v1707556372/f372f8b978ab44f821044c64fbd2a5f1.png_w5zodz.webp"
          ],
          "product_type": "Kem chống nắng",
          "product_brand": "BRAND_ID_EXAMPLE",
          "product_category": "CATEGORY_ID_EXAMPLE",
          "product_made": "Japan",
          "product_discount": false,
          "product_discount_start": 1680692122000,
          "product_discount_end": 1680695722000,
          "product_sold": 100,
          "product_international": true,
          "product_rate": 5,
          "product_ingredient": "Water, Butylene Glycol, Glycerin, Hydroxyethyl Urea, Pentylene Glycol, Triethylhexanoin, Squalane, PPG-10 Methyl Glucose Ether, Ammonium Acryloyldimethyltaurate/VP Copolymer, Behenyl Alcohol, Dimethicone, Triethyl Citrate, PPG-17-Buteth-17, Cyclopentasiloxane, Phenoxyethanol, Disodium Succinate, Methylparaben, Sodium Hyaluronate, Dimethicone Crosspolymer, Succinic Acid, Agar, Disodium EDTA, Sodium Acetylated Hyaluronate, Hydrolyzed Hyaluronic Acid, Hydrolyzed Collagen, Aphanothece Sacrum Exopolysaccharides, Alpha-Glucan, Ammonium Acrylates Copolymer, Hydroxypropyltrimonium Hyaluronate, Glucosyl Ceramide"
        },
        {
          "_id": "67ff67353f19d24dd1e85b52",
          "product_name": "Tẩy Trang Micellar Water",
          "product_price": 190000,
          "product_thumbnail": "https://res.cloudinary.com/dwu92ycra/image/upload/v1707578530/71451db414c4f652532cb727db142455.jpg_hdi5mr.webp",
          "product_images": [],
          "product_type": "Tẩy trang",
          "product_brand": "BRAND_ID_EXAMPLE",
          "product_category": "CATEGORY_ID_EXAMPLE",
          "product_made": "Thailand",
          "product_discount": false,
          "product_discount_start": 1680692122000,
          "product_discount_end": 1680695722000,
          "product_sold": 70,
          "product_international": true,
          "product_rate": 5,
          "product_ingredient": "Water, Butylene Glycol, Glycerin, Hydroxyethyl Urea, Pentylene Glycol, Triethylhexanoin, Squalane, PPG-10 Methyl Glucose Ether, Ammonium Acryloyldimethyltaurate/VP Copolymer, Behenyl Alcohol, Dimethicone, Triethyl Citrate, PPG-17-Buteth-17, Cyclopentasiloxane, Phenoxyethanol, Disodium Succinate, Methylparaben, Sodium Hyaluronate, Dimethicone Crosspolymer, Succinic Acid, Agar, Disodium EDTA, Sodium Acetylated Hyaluronate, Hydrolyzed Hyaluronic Acid, Hydrolyzed Collagen, Aphanothece Sacrum Exopolysaccharides, Alpha-Glucan, Ammonium Acrylates Copolymer, Hydroxypropyltrimonium Hyaluronate, Glucosyl Ceramide"
        }
      ],
      "total": 100,
      "page": 1,
      "limit": 10,
      "total_page": 10
    }
  },
  "categories": [
    {
      "key": "FACE",
      "title": "Mặt nạ"
    },
    {
      "key": "NOSE",
      "title": "Xịt khoáng"
    },
    {
      "key": "cham-soc-vung-da-mat",
      "title": "Chăm sóc vùng da mắt"
    },
    {
      "key": "nuoc-hoa-hong-toner",
      "title": "Nước hoa hồng, toner"
    },
    {
      "key": "kem-chong-nang",
      "title": "Kem chống nắng"
    },
    {
      "key": "tri-mun-va-seo",
      "title": "Sản phẩm trị mụn và sẹo"
    },
    {
      "key": "kem-va-sua-duong-da",
      "title": "Kem và sữa dưỡng da"
    },
    {
      "key": "san-pham-cham-soc-da-mat-khac",
      "title": "Sản phẩm chăm sóc da mặt khác"
    },
    {
      "key": "serum",
      "title": "Serum"
    },
    {
      "key": "bo-cham-soc-da-mat",
      "title": "Bộ chăm sóc da mặt"
    }
  ],
  "brands": [
    {
      "id": 1,
      "product_image": "https://res.cloudinary.com/dwu92ycra/image/upload/v1743844584/tiki/ed137a2be255eb14fe56fc2f7fe8c133_zgnkmt.png",
      "logo_image": "/images/sunhouse-logo.png",
      "title": "Triệu deal yêu thương",
      "discount": "Giảm đến 50%"
    },
    {
      "id": 2,
      "product_image": "https://res.cloudinary.com/dwu92ycra/image/upload/v1743844584/tiki/ed137a2be255eb14fe56fc2f7fe8c133_zgnkmt.png",
      "logo_image": "/images/kangaroo-logo.png",
      "title": "Siêu sale tháng 4",
      "discount": "Giảm đến 40%"
    },
    {
      "id": 3,
      "product_image": "https://res.cloudinary.com/dwu92ycra/image/upload/v1743844571/tiki/718020d7005be27f94260505ce3b4c61_hsjakx.png",
      "logo_image": "/images/philips-logo.png",
      "title": "Ưu đãi đặc biệt",
      "discount": "Giảm đến 30%"
    },
    {
      "id": 4,
      "product_image": "https://res.cloudinary.com/dwu92ycra/image/upload/v1743844571/tiki/718020d7005be27f94260505ce3b4c61_hsjakx.png",
      "logo_image": "/images/electrolux-logo.png",
      "title": "Khuyến mãi lớn",
      "discount": "Giảm đến 45%"
    },
    {
      "id": 5,
      "product_image": "https://res.cloudinary.com/dwu92ycra/image/upload/v1743844543/tiki/ae7d1e076da629fe30e902f072ed821f_af2bgz.png",
      "logo_image": "/images/panasonic-logo.png",
      "title": "Mua sắm thả ga",
      "discount": "Giảm đến 35%"
    },
    {
      "id": 6,
      "product_image": "https://res.cloudinary.com/dwu92ycra/image/upload/v1743844543/tiki/ae7d1e076da629fe30e902f072ed821f_af2bgz.png",
      "logo_image": "/images/locknlock-logo.png",
      "title": "Deal hot tuần này",
      "discount": "Giảm đến 25%"
    },
    {
      "id": 7,
      "product_image": "https://res.cloudinary.com/dwu92ycra/image/upload/v1743844543/tiki/ae7d1e076da629fe30e902f072ed821f_af2bgz.png",
      "logo_image": "/images/toshiba-logo.png",
      "title": "Siêu phẩm giảm giá",
      "discount": "Giảm đến 20%"
    },
    {
      "id": 8,
      "product_image": "https://res.cloudinary.com/dwu92ycra/image/upload/v1743844543/tiki/ae7d1e076da629fe30e902f072ed821f_af2bgz.png",
      "logo_image": "/images/samsung-logo.png",
      "title": "Ưu đãi cực sốc",
      "discount": "Giảm đến 60%"
    },
    {
      "id": 9,
      "product_image": "https://res.cloudinary.com/dwu92ycra/image/upload/v1743844543/tiki/ae7d1e076da629fe30e902f072ed821f_af2bgz.png",
      "logo_image": "/images/xiaomi-logo.png",
      "title": "Sale lớn cuối năm",
      "discount": "Giảm đến 55%"
    },
    {
      "id": 10,
      "product_image": "https://res.cloudinary.com/dwu92ycra/image/upload/v1743844543/tiki/ae7d1e076da629fe30e902f072ed821f_af2bgz.png",
      "logo_image": "/images/tefal-logo.png",
      "title": "Mua 1 tặng 1",
      "discount": "Giảm đến 15%"
    }
  ],
  "cart": {
    "cart_id": 1000001,
    "cart_status": "draft",
    "cart_quantity": 2,
    "cart_total_price": 49.99,
    "cart_discount": 5.0,
    "cart_final_price": 44.99,
    "cart_shipping": 5.0,
    "cart_discount_shipping": 0.0,
    "cart_user": {
      "user_id": 101,
      "user_name": "Alice Smith",
      "user_address": "456 Elm St, New York, USA"
    },
    "cart_products": [
      {
        "id": 5001,
        "product_price": 250000,
        "product_price_cost": 250000,
        "product_thumbnail": "https://res.cloudinary.com/dwu92ycra/image/upload/v1707539160/1758519e93449af005a02dc443a91b8d.jpg_fuhxnm.webp",
        "product_name": "Sữa Rửa Mặt Dạng Gel Dịu Nhẹ Dành Cho Da Nhạy Cảm Và Da Khô Laneige Water Bank Blue Ha Cleansing Gel 200ml",
        "quantity": 1,
        "product_total_price": 250000,
        "product_discount": 0.0
      },
      {
        "id": 5002,
        "product_price": 249999,
        "product_price_cost": 24.99,
        "product_thumbnail": "https://res.cloudinary.com/dwu92ycra/image/upload/v1707549401/b8a8f9156a46e6fa5e9191577a5a041f.png_psazkh.webp",
        "product_name": "Bộ sản phẩm Kem chống nắng dưỡng da bảo vệ hoàn hảo (Anessa Gold Milk 60ml x2 + Gold Gel 90g)",
        "quantity": 1,
        "product_total_price": 240000,
        "product_discount": 0.0
      }
    ]
  },
  "order_checkout": {
    "order_id": 1000001,
    "order_status": "draft",
    "order_quantity": 2,
    "order_total_price": 1030000,
    "order_discount": 5000,
    "order_final_price": 6000000,
    "order_shipping": 15000,
    "order_payment_method": "CASH",
    "order_paid": false,
    "order_amount_paid": 5000000,
    "order_amount_rest": 1000000,
    "order_discount_shipping": 0.0,
    "order_expected_delivery_time": "2025-04-13T19:00:00Z",
    "order_user": {
      "user_id": 101,
      "user_name": "Alice Smith",
      "user_address": "456 Elm St, New York, USA"
    },
    "order_products": [
      {
        "id": 5001,
        "product_price": 250000,
        "product_price_cost": 250000,
        "product_thumbnail": "https://res.cloudinary.com/dwu92ycra/image/upload/v1707539160/1758519e93449af005a02dc443a91b8d.jpg_fuhxnm.webp",
        "product_name": "Sữa Rửa Mặt Dạng Gel Dịu Nhẹ Dành Cho Da Nhạy Cảm Và Da Khô Laneige Water Bank Blue Ha Cleansing Gel 200ml",
        "product_quantity": 1,
        "product_total_price": 250000,
        "product_discount": 0.0
      },
      {
        "id": 5002,
        "product_price": 249999,
        "product_price_cost": 24.99,
        "product_thumbnail": "https://res.cloudinary.com/dwu92ycra/image/upload/v1707549401/b8a8f9156a46e6fa5e9191577a5a041f.png_psazkh.webp",
        "product_name": "Bộ sản phẩm Kem chống nắng dưỡng da bảo vệ hoàn hảo (Anessa Gold Milk 60ml x2 + Gold Gel 90g)",
        "product_quantity": 1,
        "product_total_price": 240000,
        "product_discount": 0.0
      }
    ]
  },
  "orders": {
    "data": {
      "orders": [
        {
          "order_id": 1000001,
          "order_status": "draft",
          "order_quantity": 2,
          "order_total_price": 1030000,
          "order_discount": 5000,
          "order_final_price": 6000000,
          "order_shipping": 15000,
          "order_discount_shipping": 0.0,
          "order_expected_delivery_time": "2025-04-13T19:00:00Z",
          "order_user": {
            "user_id": 101,
            "user_name": "Alice Smith",
            "user_address": "456 Elm St, New York, USA"
          },
          "order_products": [
            {
              "id": 5001,
              "product_price": 250000,
              "product_price_cost": 250000,
              "product_thumbnail": "https://res.cloudinary.com/dwu92ycra/image/upload/v1707539160/1758519e93449af005a02dc443a91b8d.jpg_fuhxnm.webp",
              "product_name": "Sữa Rửa Mặt Dạng Gel Dịu Nhẹ Dành Cho Da Nhạy Cảm Và Da Khô Laneige Water Bank Blue Ha Cleansing Gel 200ml",
              "product_quantity": 1,
              "product_total_price": 250000,
              "product_discount": 0.0
            },
            {
              "id": 5002,
              "product_price": 249999,
              "product_price_cost": 24.99,
              "product_thumbnail": "https://res.cloudinary.com/dwu92ycra/image/upload/v1707549401/b8a8f9156a46e6fa5e9191577a5a041f.png_psazkh.webp",
              "product_name": "Bộ sản phẩm Kem chống nắng dưỡng da bảo vệ hoàn hảo (Anessa Gold Milk 60ml x2 + Gold Gel 90g)",
              "product_quantity": 1,
              "product_total_price": 240000,
              "product_discount": 0.0
            }
          ]
        },
        {
          "order_id": 1000001,
          "order_status": "draft",
          "order_quantity": 2,
          "order_total_price": 1030000,
          "order_discount": 5000,
          "order_final_price": 6000000,
          "order_shipping": 15000,
          "order_discount_shipping": 0.0,
          "order_expected_delivery_time": "2025-04-13T19:00:00Z",
          "order_user": {
            "user_id": 101,
            "user_name": "Alice Smith",
            "user_address": "456 Elm St, New York, USA"
          },
          "order_products": [
            {
              "id": 5001,
              "product_price": 250000,
              "product_price_cost": 250000,
              "product_thumbnail": "https://res.cloudinary.com/dwu92ycra/image/upload/v1707539160/1758519e93449af005a02dc443a91b8d.jpg_fuhxnm.webp",
              "product_name": "Sữa Rửa Mặt Dạng Gel Dịu Nhẹ Dành Cho Da Nhạy Cảm Và Da Khô Laneige Water Bank Blue Ha Cleansing Gel 200ml",
              "product_quantity": 1,
              "product_total_price": 250000,
              "product_discount": 0.0
            },
            {
              "id": 5002,
              "product_price": 249999,
              "product_price_cost": 24.99,
              "product_thumbnail": "https://res.cloudinary.com/dwu92ycra/image/upload/v1707549401/b8a8f9156a46e6fa5e9191577a5a041f.png_psazkh.webp",
              "product_name": "Bộ sản phẩm Kem chống nắng dưỡng da bảo vệ hoàn hảo (Anessa Gold Milk 60ml x2 + Gold Gel 90g)",
              "product_quantity": 1,
              "product_total_price": 240000,
              "product_discount": 0.0
            }
          ]
        },
        {
          "order_id": 1000001,
          "order_status": "draft",
          "order_quantity": 2,
          "order_total_price": 1030000,
          "order_discount": 5000,
          "order_final_price": 6000000,
          "order_shipping": 15000,
          "order_discount_shipping": 0.0,
          "order_expected_delivery_time": "2025-04-13T19:00:00Z",
          "order_user": {
            "user_id": 101,
            "user_name": "Alice Smith",
            "user_address": "456 Elm St, New York, USA"
          },
          "order_products": [
            {
              "id": 5001,
              "product_price": 250000,
              "product_price_cost": 250000,
              "product_thumbnail": "https://res.cloudinary.com/dwu92ycra/image/upload/v1707539160/1758519e93449af005a02dc443a91b8d.jpg_fuhxnm.webp",
              "product_name": "Sữa Rửa Mặt Dạng Gel Dịu Nhẹ Dành Cho Da Nhạy Cảm Và Da Khô Laneige Water Bank Blue Ha Cleansing Gel 200ml",
              "product_quantity": 1,
              "product_total_price": 250000,
              "product_discount": 0.0
            },
            {
              "id": 5002,
              "product_price": 249999,
              "product_price_cost": 24.99,
              "product_thumbnail": "https://res.cloudinary.com/dwu92ycra/image/upload/v1707549401/b8a8f9156a46e6fa5e9191577a5a041f.png_psazkh.webp",
              "product_name": "Bộ sản phẩm Kem chống nắng dưỡng da bảo vệ hoàn hảo (Anessa Gold Milk 60ml x2 + Gold Gel 90g)",
              "product_quantity": 1,
              "product_total_price": 240000,
              "product_discount": 0.0
            }
          ]
        }
      ]
    }
  },
  "order_trackings": [
    {
      "time": "10:20 14-01-2025",
      "status": "Đã giao",
      "detail": "Giao hàng thành công",
      "image": "Xem hình ảnh giao hàng",
      "type": "success"
    },
    {
      "time": "09:14 14-01-2025",
      "status": "Đang vận chuyển",
      "detail": "Đơn hàng sẽ sớm được giao, vui lòng chú ý điện thoại",
      "type": "in_progress"
    },
    {
      "time": "07:17 14-01-2025",
      "detail": "Đơn hàng đã đến trạm giao hàng tại khu vực của bạn Phường Hòa Khánh Bắc...",
      "type": "delivering "
    },
    {
      "time": "05:45 14-01-2025",
      "detail": "Đơn hàng đang được trung chuyển đến địa điểm kế tiếp",
      "type": "delivering "
    },
    {
      "time": "01:18 14-01-2025",
      "detail": "Đơn hàng đã đến kho phân loại Phường Hòa Khánh Bắc...",
      "type": "delivering "
    },
    {
      "time": "01:18 14-01-2025",
      "detail": "Đơn hàng được đặt",
      "type": "delivering "
    }
  ],
  "user": {
    "username": "duongbaxinh",
    "first_name": "Xinh",
    "last_name": "Duong Ba",
    "phone": "0378700020",
    "address": "08 Tien Son 9, Phuong Hoa Cuong Nam, Hai Chau, Da Nang"
  },
  "brand": [
    {
      "id": "BRAND_1",
      "name": "The Cocoon Original Vietnam"
    },
    { "id": "BRAND_2", "name": "La Roche-Posay" },
    { "id": "BRAND_3", "name": "dermalogica" },
    { "id": "dabo", "name": "Dabo" },
    { "id": "smas", "name": "SMAS" }
  ]
}
